Journal 3
…
# how voted jochem

js_df_postalcode %>%
    filter(city == "Berg en Dal") %>%
    select(Locatie, VVD:Wij.zijn.Nederland) %>%
    gather(key = "party", value = "votes", -Locatie) %>%
    group_by(party) %>%
    summarise(total_votes = sum(votes, na.rm = TRUE)) %>%
    mutate(prc = (total_votes/sum(total_votes, na.rm = TRUE)) * 100) %>%
    arrange(desc(prc))

#> # A tibble: 32 × 3
#>    party total_votes   prc
#>    <chr>       <dbl> <dbl>
#>  1 D66           346 26.7 
#>  2 VVD           232 17.9 
#>  3 GL            180 13.9 
#>  4 PvdD          102  7.88
#>  5 PVV            69  5.33
#>  6 SP             68  5.26
#>  7 CDA            63  4.87
#>  8 Volt           54  4.17
#>  9 PvdA           50  3.86
#> 10 FvD            35  2.70
#> # … with 22 more rows
…
